20
0.0000 0.0000 0.0000 0.0000 0.0000 0.0000
0.2683 -0.1008 -0.0950 -0.1958 0.3042 0.0000
0.5250 0.1317 -0.1859 -0.1375 -0.1958 -0.5000
0.3202 -0.3978 -0.1134 -0.0292 0.3042 0.0000
0.5832 -0.4472 -0.0644 -0.2171 0.1425 0.0768
0.6792 -0.2625 0.1107 -0.0713 -0.2435 0.3858
0.4804 -0.1855 0.2796 0.1065 -0.3504 0.3088
0.4068 0.0701 0.2227 -0.0052 0.3810 0.4447
0.1758 -0.5026 -0.3187 -0.1806 -0.3297 -0.0667
-0.1792 -0.1008 -0.2212 -0.1958 -0.3917 0.0000
0.1577 -0.3780 -0.4501 -0.1129 0.1225 0.4290
0.0415 -0.6057 -0.2520 -0.0334 0.0499 -0.1517
0.2752 -0.6284 -0.4049 -0.0263 0.1391 0.1265
-0.0896 -0.0608 0.1463 -0.1958 -0.0875 0.0000
-0.2035 -0.3093 -0.2513 -0.0292 -0.3917 0.0000
-0.2806 0.0369 -0.3465 -0.1375 0.1083 0.5000
0.0000 0.1820 0.0000 0.0000 0.5000 0.5000
0.0812 0.0990 0.2498 0.2082 -0.0401 -0.3051
-0.1550 0.1199 0.2696 0.2082 -0.0401 -0.3051
0.6956 0.2863 -0.2463 -0.1375 -0.1958 -0.5000
0 1 16 1 9 13 -1 -1 -1 -1
1 2 0 2 3 -1 -1 -1 -1 -1
2 3 1 19 -1 -1 -1 -1 -1 -1
3 1 1 8 -1 4 -1 -1 -1 -1
4 1 3 -1 -1 5 -1 -1 -1 -1
5 1 4 -1 -1 6 -1 -1 -1 -1
6 1 5 7 -1 -1 -1 -1 -1 -1
7 1 6 -1 17 -1 -1 -1 -1 -1
8 1 3 11 12 10 -1 -1 -1 -1
9 2 0 15 14 -1 -1 -1 -1 -1
10 0 8 -1 -1 -1 -1 -1 -1 -1
11 0 8 -1 -1 -1 -1 -1 -1 -1
12 0 8 -1 -1 -1 -1 -1 -1 -1
13 0 0 -1 -1 -1 -1 -1 -1 -1
14 0 9 -1 -1 -1 -1 -1 -1 -1
15 0 9 -1 -1 -1 -1 -1 -1 -1
16 0 0 -1 -1 -1 -1 -1 -1 -1
17 3 7 18 -1 -1 -1 -1 -1 -1
18 0 17 -1 -1 -1 -1 -1 -1 -1
19 0 2 -1 -1 -1 -1 -1 -1 -1